<?xml version="1.0" encoding="utf-8"?>
<!-- Generator: Adobe Illustrator 16.0.0, SVG Export Plug-In . SVG Version: 6.00 Build 0)  -->
<!DOCTYPE svg PUBLIC "-//W3C//DTD SVG 1.1//EN" "http://www.w3.org/Graphics/SVG/1.1/DTD/svg11.dtd">
<svg version="1.1" id="Layer_1" xmlns="http://www.w3.org/2000/svg" xmlns:xlink="http://www.w3.org/1999/xlink" x="0px" y="0px"
	 width="1255.028px" height="455.727px" viewBox="0 0 1255.028 455.727" enable-background="new 0 0 1255.028 455.727"
	 xml:space="preserve">
<circle opacity="0.1" fill="#FFFFFF" cx="133.976" cy="287.842" r="100.892"/>
<circle opacity="0.1" fill="#FFFFFF" cx="1198.34" cy="150.937" r="56.673"/>
<circle opacity="0.1" fill="#FFFFFF" cx="1162.979" cy="224.599" r="55.405"/>
<circle opacity="0.1" fill="#FFFFFF" cx="843.721" cy="57.731" r="57.732"/>
<g opacity="0.1">
	<g>
		<path fill="#FFFFFF" d="M64.789,73.558C64.789,35.978,37,5.029,0,0.857v145.401C37,142.086,64.789,111.138,64.789,73.558z"/>
	</g>
</g>
<path opacity="0.1" fill="#FFFFFF" d="M0.734,340.264c-0.165,0,0.266,0.011-0.734,0.012v115.438c1,0.001,0.569,0.013,0.734,0.013
	c31.885,0,57.732-25.848,57.732-57.731C58.467,366.11,32.619,340.264,0.734,340.264z"/>
</svg>
